@banks/banks.lst
btiles.asm
font.asm
globals.c
game.c
game_events.c
game_layout.c
src_engine/ay.asm
src_engine/audio.c
src_engine/enemies.c
src_engine/engine.asm
src_engine/engine.c
src_engine/menu.c
src_engine/player.c
src_engine/sprite.c
src_engine/zx.asm
src_engine/zx.c
